{
	"annotations": {
	  "list": [
		{
		  "builtIn": 1,
		  "datasource": "-- Grafana --",
		  "enable": true,
		  "hide": true,
		  "iconColor": "rgba(0, 211, 255, 1)",
		  "name": "Annotations & Alerts",
		  "target": {
			"limit": 100,
			"matchAny": false,
			"tags": [],
			"type": "dashboard"
		  },
		  "type": "dashboard"
		}
	  ]
	},
	"editable": true,
	"fiscalYearStartMonth": 0,
	"graphTooltip": 0,
	"id": 15,
	"iteration": 1642261061198,
	"links": [],
	"liveNow": false,
	"panels": [
	  {
		"collapsed": false,
		"gridPos": {
		  "h": 1,
		  "w": 24,
		  "x": 0,
		  "y": 0
		},
		"id": 6,
		"panels": [],
		"repeat": "plug",
		"title": "$plug",
		"type": "row"
	  },
	  {
		"fieldConfig": {
		  "defaults": {
			"color": {
			  "mode": "palette-classic"
			},
			"custom": {
			  "axisLabel": "",
			  "axisPlacement": "auto",
			  "barAlignment": 0,
			  "drawStyle": "line",
			  "fillOpacity": 0,
			  "gradientMode": "none",
			  "hideFrom": {
				"legend": false,
				"tooltip": false,
				"viz": false
			  },
			  "lineInterpolation": "linear",
			  "lineWidth": 1,
			  "pointSize": 5,
			  "scaleDistribution": {
				"type": "linear"
			  },
			  "showPoints": "auto",
			  "spanNulls": false,
			  "stacking": {
				"group": "A",
				"mode": "none"
			  },
			  "thresholdsStyle": {
				"mode": "off"
			  }
			},
			"mappings": [],
			"thresholds": {
			  "mode": "absolute",
			  "steps": [
				{
				  "color": "green",
				  "value": null
				},
				{
				  "color": "red",
				  "value": 80
				}
			  ]
			},
			"unit": "watt"
		  },
		  "overrides": [
			{
			  "matcher": {
				"id": "byName",
				"options": "power"
			  },
			  "properties": [
				{
				  "id": "color",
				  "value": {
					"fixedColor": "semi-dark-yellow",
					"mode": "fixed"
				  }
				},
				{
				  "id": "custom.fillOpacity",
				  "value": 11
				}
			  ]
			},
			{
			  "matcher": {
				"id": "byName",
				"options": "overpower"
			  },
			  "properties": [
				{
				  "id": "color",
				  "value": {
					"fixedColor": "dark-red",
					"mode": "fixed"
				  }
				}
			  ]
			}
		  ]
		},
		"gridPos": {
		  "h": 9,
		  "w": 12,
		  "x": 0,
		  "y": 1
		},
		"id": 2,
		"interval": "10s",
		"options": {
		  "legend": {
			"calcs": [],
			"displayMode": "list",
			"placement": "bottom"
		  },
		  "tooltip": {
			"mode": "single"
		  }
		},
		"targets": [
		  {
			"alias": "power",
			"datasource": {
			  "type": "influxdb",
			  "uid": "000000002"
			},
			"groupBy": [
			  {
				"params": [
				  "$__interval"
				],
				"type": "time"
			  },
			  {
				"params": [
				  "null"
				],
				"type": "fill"
			  }
			],
			"hide": false,
			"measurement": "shellies",
			"orderByTime": "ASC",
			"policy": "default",
			"refId": "B",
			"resultFormat": "time_series",
			"select": [
			  [
				{
				  "params": [
					"power"
				  ],
				  "type": "field"
				},
				{
				  "params": [],
				  "type": "mean"
				}
			  ]
			],
			"tags": [
			  {
				"key": "mac",
				"operator": "=~",
				"value": "/^$plug$/"
			  }
			]
		  },
		  {
			"alias": "overpower",
			"datasource": {
			  "type": "influxdb",
			  "uid": "000000002"
			},
			"groupBy": [
			  {
				"params": [
				  "$__interval"
				],
				"type": "time"
			  },
			  {
				"params": [
				  "null"
				],
				"type": "fill"
			  }
			],
			"hide": false,
			"measurement": "shellies",
			"orderByTime": "ASC",
			"policy": "default",
			"refId": "A",
			"resultFormat": "time_series",
			"select": [
			  [
				{
				  "params": [
					"overpower"
				  ],
				  "type": "field"
				},
				{
				  "params": [],
				  "type": "mean"
				}
			  ]
			],
			"tags": [
			  {
				"key": "mac",
				"operator": "=~",
				"value": "/^$plug$/"
			  }
			]
		  }
		],
		"title": "Power",
		"type": "timeseries"
	  },
	  {
		"fieldConfig": {
		  "defaults": {
			"color": {
			  "mode": "palette-classic"
			},
			"custom": {
			  "axisLabel": "",
			  "axisPlacement": "auto",
			  "barAlignment": 0,
			  "drawStyle": "line",
			  "fillOpacity": 0,
			  "gradientMode": "none",
			  "hideFrom": {
				"legend": false,
				"tooltip": false,
				"viz": false
			  },
			  "lineInterpolation": "linear",
			  "lineWidth": 1,
			  "pointSize": 5,
			  "scaleDistribution": {
				"type": "linear"
			  },
			  "showPoints": "auto",
			  "spanNulls": false,
			  "stacking": {
				"group": "A",
				"mode": "none"
			  },
			  "thresholdsStyle": {
				"mode": "off"
			  }
			},
			"mappings": [],
			"thresholds": {
			  "mode": "absolute",
			  "steps": [
				{
				  "color": "green",
				  "value": null
				}
			  ]
			},
			"unit": "watth"
		  },
		  "overrides": [
			{
			  "matcher": {
				"id": "byName",
				"options": "total"
			  },
			  "properties": [
				{
				  "id": "color",
				  "value": {
					"fixedColor": "semi-dark-orange",
					"mode": "fixed"
				  }
				}
			  ]
			}
		  ]
		},
		"gridPos": {
		  "h": 9,
		  "w": 12,
		  "x": 12,
		  "y": 1
		},
		"id": 4,
		"interval": "10s",
		"options": {
		  "legend": {
			"calcs": [],
			"displayMode": "list",
			"placement": "bottom"
		  },
		  "tooltip": {
			"mode": "single"
		  }
		},
		"targets": [
		  {
			"alias": "total",
			"datasource": {
			  "type": "influxdb",
			  "uid": "000000002"
			},
			"groupBy": [
			  {
				"params": [
				  "$__interval"
				],
				"type": "time"
			  },
			  {
				"params": [
				  "null"
				],
				"type": "fill"
			  }
			],
			"measurement": "shellies",
			"orderByTime": "ASC",
			"policy": "default",
			"refId": "A",
			"resultFormat": "time_series",
			"select": [
			  [
				{
				  "params": [
					"total"
				  ],
				  "type": "field"
				},
				{
				  "params": [],
				  "type": "last"
				},
				{
				  "params": [
					" / 60"
				  ],
				  "type": "math"
				}
			  ]
			],
			"tags": [
			  {
				"key": "mac",
				"operator": "=~",
				"value": "/^$plug$/"
			  }
			]
		  }
		],
		"title": "Energy",
		"type": "timeseries"
	  },
	  {
		"description": "",
		"fieldConfig": {
		  "defaults": {
			"color": {
			  "mode": "thresholds"
			},
			"mappings": [
			  {
				"options": {
				  "false": {
					"color": "text",
					"index": 1,
					"text": "Off"
				  },
				  "true": {
					"color": "green",
					"index": 0,
					"text": "On"
				  }
				},
				"type": "value"
			  }
			],
			"thresholds": {
			  "mode": "absolute",
			  "steps": [
				{
				  "color": "green",
				  "value": null
				}
			  ]
			}
		  },
		  "overrides": []
		},
		"gridPos": {
		  "h": 4,
		  "w": 3,
		  "x": 0,
		  "y": 10
		},
		"id": 26,
		"interval": "10s",
		"options": {
		  "colorMode": "value",
		  "graphMode": "none",
		  "justifyMode": "auto",
		  "orientation": "auto",
		  "reduceOptions": {
			"calcs": [
			  "lastNotNull"
			],
			"fields": "/^shellies\\.last$/",
			"values": false
		  },
		  "text": {},
		  "textMode": "value"
		},
		"pluginVersion": "8.3.3",
		"targets": [
		  {
			"datasource": {
			  "type": "influxdb",
			  "uid": "000000002"
			},
			"groupBy": [],
			"measurement": "shellies",
			"orderByTime": "ASC",
			"policy": "default",
			"refId": "A",
			"resultFormat": "time_series",
			"select": [
			  [
				{
				  "params": [
					"ison"
				  ],
				  "type": "field"
				},
				{
				  "params": [],
				  "type": "last"
				}
			  ]
			],
			"tags": [
			  {
				"key": "mac",
				"operator": "=~",
				"value": "/^$plug$/"
			  }
			]
		  }
		],
		"title": "Relay State",
		"type": "stat"
	  },
	  {
		"description": "",
		"fieldConfig": {
		  "defaults": {
			"color": {
			  "mode": "thresholds"
			},
			"mappings": [
			  {
				"options": {
				  "false": {
					"color": "red",
					"index": 1,
					"text": "Invalid"
				  },
				  "true": {
					"color": "green",
					"index": 0,
					"text": "Valid"
				  }
				},
				"type": "value"
			  }
			],
			"thresholds": {
			  "mode": "absolute",
			  "steps": [
				{
				  "color": "green",
				  "value": null
				}
			  ]
			}
		  },
		  "overrides": []
		},
		"gridPos": {
		  "h": 4,
		  "w": 3,
		  "x": 3,
		  "y": 10
		},
		"id": 48,
		"interval": "10s",
		"options": {
		  "colorMode": "value",
		  "graphMode": "none",
		  "justifyMode": "auto",
		  "orientation": "auto",
		  "reduceOptions": {
			"calcs": [
			  "lastNotNull"
			],
			"fields": "/^shellies\\.last$/",
			"values": false
		  },
		  "text": {},
		  "textMode": "value"
		},
		"pluginVersion": "8.3.3",
		"targets": [
		  {
			"datasource": {
			  "type": "influxdb",
			  "uid": "000000002"
			},
			"groupBy": [],
			"measurement": "shellies",
			"orderByTime": "ASC",
			"policy": "default",
			"refId": "A",
			"resultFormat": "time_series",
			"select": [
			  [
				{
				  "params": [
					"is_valid"
				  ],
				  "type": "field"
				},
				{
				  "params": [],
				  "type": "last"
				}
			  ]
			],
			"tags": [
			  {
				"key": "mac",
				"operator": "=~",
				"value": "/^$plug$/"
			  }
			]
		  }
		],
		"title": "Measurement",
		"type": "stat"
	  },
	  {
		"fieldConfig": {
		  "defaults": {
			"color": {
			  "mode": "thresholds"
			},
			"mappings": [],
			"thresholds": {
			  "mode": "absolute",
			  "steps": [
				{
				  "color": "light-blue",
				  "value": null
				}
			  ]
			},
			"unit": "watth"
		  },
		  "overrides": []
		},
		"gridPos": {
		  "h": 4,
		  "w": 3,
		  "x": 6,
		  "y": 10
		},
		"id": 14,
		"interval": "60s",
		"maxDataPoints": 64,
		"options": {
		  "colorMode": "value",
		  "graphMode": "area",
		  "justifyMode": "auto",
		  "orientation": "auto",
		  "reduceOptions": {
			"calcs": [
			  "diff"
			],
			"fields": "",
			"values": false
		  },
		  "textMode": "auto"
		},
		"pluginVersion": "8.3.3",
		"targets": [
		  {
			"datasource": {
			  "type": "influxdb",
			  "uid": "000000002"
			},
			"groupBy": [
			  {
				"params": [
				  "$__interval"
				],
				"type": "time"
			  }
			],
			"hide": false,
			"measurement": "shellies",
			"orderByTime": "ASC",
			"policy": "default",
			"query": "SELECT last(\"total\")  / 60 FROM \"shellies\" WHERE (\"mac\" =~ /^$plug$/) AND $timeFilter",
			"rawQuery": false,
			"refId": "A",
			"resultFormat": "time_series",
			"select": [
			  [
				{
				  "params": [
					"total"
				  ],
				  "type": "field"
				},
				{
				  "params": [],
				  "type": "last"
				},
				{
				  "params": [
					" / 60"
				  ],
				  "type": "math"
				}
			  ]
			],
			"tags": [
			  {
				"key": "mac",
				"operator": "=~",
				"value": "/^$plug$/"
			  }
			]
		  }
		],
		"title": "🔺E",
		"type": "stat"
	  },
	  {
		"fieldConfig": {
		  "defaults": {
			"color": {
			  "mode": "thresholds"
			},
			"decimals": 2,
			"mappings": [],
			"thresholds": {
			  "mode": "absolute",
			  "steps": [
				{
				  "color": "light-blue",
				  "value": null
				}
			  ]
			},
			"unit": "currencyEUR"
		  },
		  "overrides": []
		},
		"gridPos": {
		  "h": 4,
		  "w": 3,
		  "x": 9,
		  "y": 10
		},
		"id": 19,
		"interval": "60s",
		"maxDataPoints": 64,
		"options": {
		  "colorMode": "value",
		  "graphMode": "area",
		  "justifyMode": "auto",
		  "orientation": "auto",
		  "reduceOptions": {
			"calcs": [
			  "diff"
			],
			"fields": "",
			"values": false
		  },
		  "textMode": "auto"
		},
		"pluginVersion": "8.3.3",
		"targets": [
		  {
			"alias": "difference",
			"datasource": {
			  "type": "influxdb",
			  "uid": "000000002"
			},
			"groupBy": [
			  {
				"params": [
				  "$interval"
				],
				"type": "time"
			  },
			  {
				"params": [
				  "null"
				],
				"type": "fill"
			  }
			],
			"hide": false,
			"measurement": "shellies",
			"orderByTime": "ASC",
			"policy": "default",
			"query": "SELECT (last(\"total\")-first(\"total\"))  / 60000 * $kwhPrice FROM \"shellies\" WHERE (\"mac\" =~ /^$plug$/) AND $timeFilter",
			"rawQuery": false,
			"refId": "A",
			"resultFormat": "time_series",
			"select": [
			  [
				{
				  "params": [
					"total"
				  ],
				  "type": "field"
				},
				{
				  "params": [],
				  "type": "last"
				},
				{
				  "params": [
					" / 60000 * $kwhPrice"
				  ],
				  "type": "math"
				}
			  ]
			],
			"tags": [
			  {
				"key": "mac",
				"operator": "=~",
				"value": "/^$plug$/"
			  }
			]
		  }
		],
		"title": "💸",
		"type": "stat"
	  },
	  {
		"description": "",
		"fieldConfig": {
		  "defaults": {
			"color": {
			  "mode": "thresholds"
			},
			"mappings": [
			  {
				"options": {
				  "false": {
					"color": "green",
					"index": 0,
					"text": "No Update"
				  },
				  "true": {
					"color": "red",
					"index": 1,
					"text": "UPDATE"
				  }
				},
				"type": "value"
			  }
			],
			"thresholds": {
			  "mode": "absolute",
			  "steps": [
				{
				  "color": "green",
				  "value": null
				},
				{
				  "color": "red",
				  "value": 1
				}
			  ]
			}
		  },
		  "overrides": []
		},
		"gridPos": {
		  "h": 2,
		  "w": 12,
		  "x": 12,
		  "y": 10
		},
		"id": 38,
		"interval": "10s",
		"options": {
		  "colorMode": "value",
		  "graphMode": "none",
		  "justifyMode": "auto",
		  "orientation": "auto",
		  "reduceOptions": {
			"calcs": [
			  "lastNotNull"
			],
			"fields": "/fw.*/",
			"values": false
		  },
		  "textMode": "value_and_name"
		},
		"pluginVersion": "8.3.3",
		"targets": [
		  {
			"alias": "fw: $tag_firmware",
			"datasource": {
			  "type": "influxdb",
			  "uid": "000000002"
			},
			"groupBy": [
			  {
				"params": [
				  "$interval"
				],
				"type": "time"
			  },
			  {
				"params": [
				  "firmware"
				],
				"type": "tag"
			  }
			],
			"measurement": "shellies",
			"orderByTime": "ASC",
			"policy": "default",
			"refId": "A",
			"resultFormat": "time_series",
			"select": [
			  [
				{
				  "params": [
					"has_update"
				  ],
				  "type": "field"
				},
				{
				  "params": [],
				  "type": "last"
				}
			  ]
			],
			"tags": [
			  {
				"key": "mac",
				"operator": "=~",
				"value": "/^$plug$/"
			  }
			]
		  }
		],
		"type": "stat"
	  },
	  {
		"description": "",
		"fieldConfig": {
		  "defaults": {
			"color": {
			  "mode": "thresholds"
			},
			"mappings": [],
			"thresholds": {
			  "mode": "absolute",
			  "steps": [
				{
				  "color": "blue",
				  "value": null
				},
				{
				  "color": "green",
				  "value": 10
				},
				{
				  "color": "orange",
				  "value": 35
				}
			  ]
			},
			"unit": "celsius"
		  },
		  "overrides": []
		},
		"gridPos": {
		  "h": 2,
		  "w": 3,
		  "x": 12,
		  "y": 12
		},
		"id": 34,
		"interval": "10s",
		"options": {
		  "colorMode": "value",
		  "graphMode": "area",
		  "justifyMode": "auto",
		  "orientation": "auto",
		  "reduceOptions": {
			"calcs": [
			  "lastNotNull"
			],
			"fields": "",
			"values": false
		  },
		  "textMode": "value"
		},
		"pluginVersion": "8.3.3",
		"targets": [
		  {
			"datasource": {
			  "type": "influxdb",
			  "uid": "000000002"
			},
			"groupBy": [
			  {
				"params": [
				  "$__interval"
				],
				"type": "time"
			  },
			  {
				"params": [
				  "null"
				],
				"type": "fill"
			  }
			],
			"measurement": "shellies",
			"orderByTime": "ASC",
			"policy": "default",
			"refId": "A",
			"resultFormat": "time_series",
			"select": [
			  [
				{
				  "params": [
					"temperature"
				  ],
				  "type": "field"
				},
				{
				  "params": [],
				  "type": "mean"
				}
			  ]
			],
			"tags": [
			  {
				"key": "mac",
				"operator": "=~",
				"value": "/^$plug$/"
			  }
			]
		  }
		],
		"type": "stat"
	  },
	  {
		"description": "",
		"fieldConfig": {
		  "defaults": {
			"color": {
			  "mode": "thresholds"
			},
			"mappings": [],
			"max": 0,
			"min": -100,
			"thresholds": {
			  "mode": "absolute",
			  "steps": [
				{
				  "color": "red",
				  "value": null
				},
				{
				  "color": "yellow",
				  "value": -50
				},
				{
				  "color": "green",
				  "value": -30
				}
			  ]
			},
			"unit": "dBm"
		  },
		  "overrides": []
		},
		"gridPos": {
		  "h": 2,
		  "w": 9,
		  "x": 15,
		  "y": 12
		},
		"id": 36,
		"interval": "10s",
		"maxDataPoints": 16,
		"options": {
		  "colorMode": "value",
		  "graphMode": "area",
		  "justifyMode": "center",
		  "orientation": "auto",
		  "reduceOptions": {
			"calcs": [
			  "lastNotNull"
			],
			"fields": "",
			"values": false
		  },
		  "text": {},
		  "textMode": "value_and_name"
		},
		"pluginVersion": "8.3.3",
		"targets": [
		  {
			"alias": "$tag_ssid $tag_ip",
			"datasource": {
			  "type": "influxdb",
			  "uid": "000000002"
			},
			"groupBy": [
			  {
				"params": [
				  "$__interval"
				],
				"type": "time"
			  },
			  {
				"params": [
				  "ssid"
				],
				"type": "tag"
			  },
			  {
				"params": [
				  "ip"
				],
				"type": "tag"
			  }
			],
			"measurement": "shellies",
			"orderByTime": "ASC",
			"policy": "default",
			"refId": "A",
			"resultFormat": "time_series",
			"select": [
			  [
				{
				  "params": [
					"rssi"
				  ],
				  "type": "field"
				},
				{
				  "params": [],
				  "type": "last"
				}
			  ]
			],
			"tags": [
			  {
				"key": "mac",
				"operator": "=~",
				"value": "/^$plug$/"
			  }
			]
		  }
		],
		"type": "stat"
	  }
	],
	"refresh": false,
	"schemaVersion": 34,
	"style": "dark",
	"tags": [],
	"templating": {
	  "list": [
		{
		  "current": {
			"selected": false,
			"text": "All",
			"value": "$__all"
		  },
		  "definition": "SHOW TAG VALUES WITH KEY=mac",
		  "description": "",
		  "hide": 0,
		  "includeAll": true,
		  "multi": false,
		  "name": "plug",
		  "options": [],
		  "query": "SHOW TAG VALUES WITH KEY=mac",
		  "refresh": 1,
		  "regex": "",
		  "skipUrlSync": false,
		  "sort": 0,
		  "type": "query"
		},
		{
		  "current": {
			"selected": false,
			"text": "0.319",
			"value": "0.319"
		  },
		  "hide": 2,
		  "includeAll": false,
		  "multi": false,
		  "name": "kwhPrice",
		  "options": [
			{
			  "selected": true,
			  "text": "0.319",
			  "value": "0.319"
			}
		  ],
		  "query": "0.319",
		  "skipUrlSync": false,
		  "type": "custom"
		}
	  ]
	},
	"time": {
	  "from": "now-30m",
	  "to": "now"
	},
	"timepicker": {},
	"timezone": "",
	"title": "powers",
	"uid": "FUrCdA17z",
	"version": 20,
	"weekStart": ""
  }